;UTAC;RDS-CP;MPR;FLC;EM!;LNC;LA;LA-ADN;ADN;PP;PD;
Ostaria;1,96 %;31,03 %;2,65 %;1,95 %;0,77 %;8,21 %;21,24 %;;17,62 %;13,89 %;0,68 %;
Aupagne;1,85 %;30,49 %;2,45 %;;0,76 %;8,33 %;;42,98 %;;12,12 %;1,02 %;
Bacapy;2,23 %;35,97 %;2,51 %;;0,72 %;7,58 %;;35,69 %;;14,31 %;0,99 %;
Brifalle;1,84 %;28,23 %;2,49 %;;0,74 %;8,09 %;;40,14 %;;17,43 %;1,04 %;
Cavour;1,76 %;27,57 %;2,26 %;9,95 %;0,71 %;7,8 %;;37,92 %;;11,42 %;0,62 %;
Choignaux;1,86 %;31,03 %;2,5 %;;0,75 %;9,94 %;;39,55 %;;13,36 %;1,01 %;
Orbône;2,02 %;33,51 %;3,33 %;;0,85 %;7,66 %;;37,74 %;;13,91 %;0,99 %;
Abosque;1,9 %;32,12 %;2,28 %;9,39 %;0,61 %;6,83 %;;35,96 %;;10,37 %;0,55 %;
Bridame;1,8 %;33,25 %;2,28 %;;0,7 %;7,8 %;;40,79 %;;12,54 %;0,85 %;
Bridy;1,92 %;40,95 %;2,55 %;;0,64 %;7,28 %;;31,57 %;;14,18 %;0,92 %;
Brignal;1,2 %;29,58 %;2 %;;0,63 %;7,9 %;;48,28 %;;9,6 %;0,82 %;
Calmec;1,94 %;27,74 %;2,36 %;;0,77 %;8,16 %;;44,95 %;;13,2 %;0,87 %;
Cantrac;1,53 %;26,51 %;2,22 %;;0,66 %;7,05 %;;40,81 %;;20,32 %;0,9 %;
Condail;1,7 %;29,15 %;2,15 %;;0,68 %;8,31 %;;41,88 %;;15,2 %;0,93 %;
Contec;2,09 %;30,46 %;2,46 %;;0,82 %;8,13 %;;37,79 %;;17,26 %;0,99 %;
Dusaux;1,5 %;22,68 %;1,8 %;9,97 %;0,55 %;5,96 %;;49,18 %;;7,88 %;0,48 %;
Egois;1,64 %;25,3 %;2,02 %;;0,54 %;24,02 %;;33,06 %;;12,6 %;0,8 %;
Fontour;2,08 %;33,94 %;3,28 %;;0,75 %;7,23 %;;37,04 %;;14,7 %;0,98 %;
Illonlieu;1,55 %;28,9 %;1,91 %;8,42 %;0,63 %;8,64 %;;37,8 %;;11,65 %;0,5 %;
Irosque;1,76 %;43,13 %;1,9 %;7,22 %;0,51 %;5,53 %;;30,61 %;;8,87 %;0,46 %;
Lanrac;2,04 %;39,05 %;2,47 %;;0,68 %;7,57 %;;36,28 %;;10,98 %;0,93 %;
Londal;0,99 %;15,25 %;1,38 %;;0,48 %;4,76 %;;37,3 %;;39,2 %;0,64 %;
Lunont;2,15 %;38,88 %;3,4 %;;0,89 %;6,49 %;;33,96 %;;13,45 %;0,78 %;
Menargues;2,44 %;44,98 %;2,34 %;;0,63 %;6,57 %;;30,45 %;;11,69 %;0,9 %;
Mirnont;3,07 %;34,51 %;2,5 %;;0,7 %;7,57 %;;35,91 %;;14,83 %;0,92 %;
Nour;2,22 %;33,74 %;2,41 %;;0,66 %;7,77 %;;40,21 %;;12,09 %;0,9 %;
Odail;2,22 %;29,39 %;4,78 %;;0,9 %;8,14 %;;39,25 %;;14,39 %;0,94 %;
Pedur;1,18 %;19,1 %;1,89 %;;0,65 %;6,34 %;;43,2 %;;26,84 %;0,8 %;
Tasasque;1,32 %;35,62 %;4,87 %;;0,74 %;6,92 %;;40,09 %;;9,53 %;0,92 %;
Tuse;1,67 %;30,34 %;2,1 %;;0,65 %;7,69 %;;46,9 %;;9,81 %;0,83 %;
Virnois;1,8 %;33,2 %;2,29 %;;0,7 %;8,49 %;;39,62 %;;12,98 %;0,91 %;
