;Valentin Bachelot;Béatrice Lusignan;Jean-Philippe Walter;Paul-Édouard Ducherne;Christophe Letordu;Marie-Claire d'Esquincourt;Valentine Miron;
Ostaria;2,65 %;20,38 %;4,17 %;2,76 %;33,92 %;20,44 %;15,68 %;
Aupagne;2,7 %;19,72 %;3,75 %;2,7 %;37,4 %;20,09 %;13,64 %;
Bacapy;2,98 %;23,57 %;3,9 %;2,9 %;30,74 %;18,81 %;17,09 %;
Brifalle;2,36 %;17,49 %;3,71 %;2,65 %;30,7 %;23,65 %;19,44 %;
Cavour;2,67 %;20,06 %;3,83 %;2,77 %;34,79 %;21,77 %;14,12 %;
Choignaux;2,58 %;19,25 %;3,75 %;2,7 %;36,82 %;20,34 %;14,57 %;
Orbône;2,66 %;21,78 %;5,47 %;2,8 %;33,16 %;18,49 %;15,64 %;
 Aupagne (campagne);2,55 %;19 %;3,9 %;2,81 %;37,11 %;20,34 %;14,3 %;
 Bacapy (campagne);2,83 %;22,06 %;4 %;2,91 %;32,08 %;19,07 %;17,06 %;
 Brifalle (campagne);2,31 %;17,41 %;3,94 %;2,82 %;31,36 %;22,48 %;19,68 %;
 Cavour (campagne);2,59 %;19,26 %;4,03 %;2,93 %;34,48 %;22,25 %;14,46 %;
 Choignaux (campagne);2,44 %;18,88 %;3,96 %;2,85 %;36,21 %;20,57 %;15,09 %;
 Orbône (campagne);2,48 %;20,14 %;5,17 %;3 %;34,44 %;19,06 %;15,71 %;
Abosque;2,98 %;23,85 %;3,81 %;2,56 %;35,06 %;18,88 %;12,86 %;
Bridame;3,26 %;22,32 %;3,37 %;2,45 %;35,42 %;19,58 %;13,6 %;
Bridy;3,11 %;25,54 %;3,96 %;2,46 %;28,63 %;18,67 %;17,63 %;
Brignal;2,25 %;18,86 %;3,05 %;2,26 %;46,83 %;15,9 %;10,86 %;
Calmec;2,05 %;14,39 %;3,35 %;2,5 %;39,73 %;24,62 %;13,36 %;
Cantrac;1,98 %;15,58 %;3,37 %;2,45 %;27,26 %;26,52 %;22,85 %;
Condail;2,62 %;17,89 %;3,09 %;2,2 %;30,38 %;27,19 %;16,63 %;
Contec;2,72 %;19,59 %;3,78 %;3,64 %;31,65 %;18,93 %;19,69 %;
Dusaux;2,38 %;16,36 %;2,94 %;2,08 %;24,95 %;41,55 %;9,74 %;
Egois;2,22 %;15,82 %;3,04 %;2,12 %;48,13 %;15,2 %;13,47 %;
Fontour;2,96 %;23,37 %;5,13 %;3,3 %;29,27 %;19,77 %;16,2 %;
Illonlieu;2,87 %;22,09 %;3,14 %;2,27 %;37,93 %;17,72 %;13,98 %;
Irosque;3,94 %;30,71 %;3,38 %;2,29 %;26,36 %;21,71 %;11,62 %;
Lanrac;4,14 %;27,68 %;3,74 %;2,55 %;31,59 %;17,78 %;12,53 %;
Londal;1,41 %;9,46 %;2,02 %;1,6 %;18,83 %;25,01 %;41,66 %;
Lunont;3,08 %;25,82 %;6,11 %;2,27 %;30,31 %;16,76 %;15,65 %;
Menargues;3,58 %;31,32 %;3,75 %;2,7 %;26,6 %;17,5 %;14,55 %;
Mirnont;3,35 %;23,21 %;3,83 %;2,82 %;31,09 %;18,07 %;17,63 %;
Nour;2,94 %;20,87 %;3,44 %;2,39 %;30,71 %;26,98 %;12,68 %;
Odail;2,64 %;18,98 %;7,42 %;3,05 %;33,22 %;18,95 %;15,73 %;
Pedur;1,47 %;11,62 %;2,73 %;2,24 %;23,66 %;27,18 %;31,1 %;
Tasasque;2,73 %;24,57 %;7,42 %;2,26 %;30,54 %;21,56 %;10,92 %;
Tuse;2,76 %;19,46 %;3,2 %;2,3 %;41,12 %;20 %;11,16 %;
Virnois;3,42 %;23,11 %;3,47 %;2,51 %;31,97 %;20,89 %;14,64 %;
